^C:\USERS\FRANK DYE\DESKTOP\PROGRAMMING PROJECTS\CSC415-HW3\WIN32\SHELL\DEBUG\SHELL.OBJ
C:\USERS\FRANK DYE\DESKTOP\PROGRAMMING PROJECTS\CSC415-HW3\WIN32\SHELL\DEBUG\SHELL.ILK
C:\USERS\FRANK DYE\DESKTOP\PROGRAMMING PROJECTS\CSC415-HW3\WIN32\SHELL\DEBUG\SHELL.EXE
C:\USERS\FRANK DYE\DESKTOP\PROGRAMMING PROJECTS\CSC415-HW3\WIN32\SHELL\DEBUG\SHELL.PDB
